spawns	name	room	loc_x	loc_y	loc_z	yaw	script	mood	animation_mood	respawn_time	spawn_objvar	special_room	special_room_script	room_objvar	room_objvar_name	room_objvar_value	planet_level
s	s	s	f	f	f	f	s	s	s	i	s	s	s	s	s	s	i[0]
singing_mtn_clan_scout		world	-6621.953613	325.7238159	-777.7192993	-150	theme_park.dungeon.generic_death			3600	int:ai.defaultCalmBehavior=2						1
singing_mtn_clan_initiate		world	-6564.212402	264.6102905	-742.0913086	98	theme_park.dungeon.generic_death			3600	int:ai.defaultCalmBehavior=1						1
singing_mtn_clan_initiate		world	-6564.4	265.6	-743.7	98	theme_park.dungeon.generic_death			3600	int:ai.defaultCalmBehavior=1						1
